%!PS-Adobe-3.0 EPSF-3.0
%%Title: lcd-con.eps
%%Creator: XCircuit v3.7 rev26
%%CreationDate: Tue Oct 22 17:04:30 2013
%%Pages: 1
%%BoundingBox: 68 68 436 220
%%DocumentNeededResources: font Helvetica 
%%EndComments
%%BeginProlog
%
%  PostScript prolog for output from xcircuit
%  Version: 3.7
%
%  Electrical circuit (and otherwise general) drawing program
%
%  Written by Tim Edwards 8/5/93--11/1/10  (tim.edwards@multigig.com)
%  The Johns Hopkins University (1993-2004)
%  MultiGiG, Inc. (2004-present)
%
%%BeginResource: procset XCIRCproc 3.7 2
%
% supporting definitions --- these are the primary xcircuit types.

/XCIRCsave save def
/topmat matrix currentmatrix def

/fontslant { /slant exch def [1 0 slant 1 0 0] 
    exch findfont exch makefont dup length dict /ndict exch def
    { 1 index /FID ne { ndict 3 1 roll put } { pop pop } ifelse } forall
    ndict definefont pop} def
/ul { dup type /stringtype eq showflag 1 eq and { gsave 
   currentpoint topmat setmatrix 0 0 moveto 2 index stringwidth pop (_)
   false charpath flattenpath pathbbox grestore exch pop 1 index
   sub setlinewidth exch pop currentpoint 3 -1 roll add moveto 0
   rlineto stroke moveto } if } def
/ol { dup type /stringtype eq showflag 1 eq and { gsave gsave
   currentpoint topmat setmatrix 2 index stringwidth pop 3 index
   true charpath flattenpath pathbbox grestore exch pop
   exch pop topmat setmatrix (_) true charpath pathbbox grestore
   exch pop 1 index sub setlinewidth exch pop currentpoint
   exch 4 1 roll exch sub add moveto pop 0 rlineto stroke
   moveto } if } def
/stW { gsave currentpoint newpath moveto true charpath flattenpath
	pathbbox pop exch pop sub grestore } def
/Ts {mark Tabs aload pop counttomark 1 add array astore /Tabs exch def Tabs
	0 currentpoint pop put} def
/Tbn {mark Tabs aload pop counttomark dup 2 add 1 roll cleartomark 1 sub} def
/Tb { 0 1 Tbn {Tabs exch get dup currentpoint pop lt
	{currentpoint exch pop moveto exit} {pop} ifelse } for } def
/Tf { Tbn -1 0 {Tabs exch get dup currentpoint pop gt
	{currentpoint exch pop moveto exit} {pop} ifelse } for } def
/qS { (aa) stW (a a) stW sub 4 div 0 Kn } def
/hS { qS qS } def
/pspc 0 def
/cf0 { scalefont setfont } bind def
/Kn { dup kY add /kY exch def rmoveto } bind def
/ss { /fscale fscale 0.67 mul def currentfont 0.67 cf0 0 fscale0 fscale mul
	0.33 mul neg Kn} def
/Ss { /fscale fscale 0.67 mul def currentfont 0.67 cf0 0 fscale0 fscale mul
	0.67 mul Kn } def
/ns { 0 kY neg Kn /kY 0 def /fscale 1.0 def xfont0 1.0 cf0 } def
/CR { ns 0 /Bline Bline fscale0 neg add def Bline moveto } def
/cf { dup type /realtype ne {1.0} if exch findfont exch kY 0 eq
	{ 40 mul dup /fscale0 exch def cf0 /xfont0 currentfont def}
	{fscale0 mul fscale mul cf0} ifelse } def
/ctmk { counttomark dup 2 add -1 roll pop } bind def
/label { gsave translate 0 0 moveto dup scale neg /rotval exch def
	/just exch def just 384 and 0 gt {/mshow {pop} def} {/mshow {show}
	def} ifelse just 16 and 0 gt {gsave rotval rotate 0 1 dtransform
	gsave pagemat setmatrix idtransform exch grestore 1 0 dtransform
	gsave pagemat setmatrix idtransform exch grestore dup abs 1e-9 lt
	{pop mul 0 gt} {3 1 roll pop pop 0 lt} ifelse grestore {-1 /rotval
	rotval neg def /just just dup 3 and 1 ne {3 xor} if def} {1} ifelse
	exch -1e-9 lt {-1 /rotval rotval neg def /just just dup 12 and
	4 ne {12 xor} if def} {1} ifelse scale } if /showflag 0 def
	/fspc pspc def /Bline 0 def /Tabs 0 array def /fscale 1.0 def
	/kY 0 def gsave dup 1 add copy 0 exch 1 0 dtransform exch atan rotate
	{exch dup type /stringtype eq {true charpath flattenpath} {dup type
	/arraytype eq {exec} {12 string cvs true charpath flattenpath} ifelse}
	ifelse} repeat pop pathbbox grestore 3 -1 roll pop 3 1 roll just
	1 and 0 gt {just 2 and 0 gt {exch pop neg fspc sub} {exch sub 0.5
	mul neg} ifelse} {pop neg fspc add} ifelse exch Bline exch just 4
	and 0 gt {just 8 and 0 gt {exch pop neg fspc sub} {add 0.5 mul neg}
	ifelse} {pop neg fspc add} ifelse rotval rotate Kn currentpoint
	translate /showflag 1 def /Bline 0 def /Tabs 0 array def /fscale
	1.0 def /kY 0 def {dup type /stringtype eq {mshow} {dup type
	/arraytype eq {exec} {12 string cvs mshow} ifelse} ifelse} repeat
	grestore endclip} def
/pinlabel { 4 index 32 and 0 ne hlevel 0 eq or { /pspc 10 def label
	/pspc 0 def } { pop pop pop pop pop {pop} repeat } ifelse } def
/pinglobal { pinlabel } def
/infolabel { pinlabel } def
/graphic { gsave 4 index cvx exec /DataSource get resetfile translate 0 0
	moveto neg rotate dup scale cvx exec image grestore endclip} def

/scb { setrgbcolor } bind def  /sce { defColor aload pop scb } bind def
/cRedef {/defColor currentcolor 3 array astore def} def
/begingate {dup type /dicttype ne {1 dict} if begin	% default params
	dup type /dicttype ne {1 dict} if begin		% instanced params
	/hlevel hlevel 1 add def /defColor currentcolor sce 3 array astore
	def gsave sce translate 0 0 moveto neg rotate dup type /nametype
	eq not { dup abs currentlinewidth exch div setlinewidth } { pop }
	ifelse dup abs scale clipped 1 and 1 eq {/clipped clipped 1 add def}
	if} bind def
/endgate { /hlevel hlevel 1 sub def grestore defColor aload pop cRedef
	scb end end endclip} bind def

/hlevel 0 def
/endclip {clipped 1 and 1 eq {grestore /clipped clipped 1 sub def} if} def
/tmpa [1 0 0 1 0 0] def
/gar {8 8 true tmpa {<c0 c0 00 00 0c 0c 00 00>} imagemask} bind
{8 8 true tmpa {<30 70 60 02 03 07 06 20>} imagemask} bind
{8 8 true tmpa {<0c 1e 1e 0c c0 e1 e1 c0>} imagemask} bind
{8 8 true tmpa {<0f 0f 0f 0f f0 f0 f0 f0>} imagemask} bind
{8 8 true tmpa {<3f f3 e1 e1 f3 3f 1e 1e>} imagemask} bind
{8 8 true tmpa {<df cf 8f 9f fd fc f8 f9>} imagemask} bind
{8 8 true tmpa {<ff 3f 3f ff ff f3 f3 ff>} imagemask} bind 7 array astore def
/ppaint { gsave clip tmpa dup setmatrix pathbbox neg exch neg 4 2 roll
  neg 4 -1 roll 2 copy gt {exch} if 8 div ceiling 8 mul 4 2 roll neg 2 copy
  gt {exch} if 8 div ceiling 8 mul 3 -1 roll -8 5 -1 roll
  { 3 index exch 5 exch put dup -8 3 index { 3 index
  exch 4 exch put 3 index exec } for } for pop pop pop pop grestore } bind def
/setstyles {
  currentlinewidth mul setlinewidth /style exch def style 2048 and 0 gt
  clipped 1 and 0 eq and {clip newpath /clipped clipped 1 add def} {
  style 1 and 0 gt not {closepath} if
  style 1024 and 0 gt {2 setlinecap} if
  style 2 and 0 gt {currentlinewidth 4 mul dup 2 array astore 0 setdash} if
  style 4 and 0 gt {0.5 currentlinewidth 4 mul 2 array astore 0 setdash} if
  gsave style 16 and 0 gt { style 224 and -5 bitshift style 256 and 0 gt {
  7 exch sub 8 div dup 1 exch sub currentrgbcolor 3 array astore
  {3 copy mul add 4 1 roll pop} forall pop pop setrgbcolor eofill}
  {dup 7 lt {gar exch get ppaint} {pop eofill} ifelse} ifelse}
  {style 256 and 0 gt {1 setgray eofill} if} ifelse grestore style 8 and 0 gt 
  style 512 eq or {newpath} {stroke} ifelse grestore endclip} ifelse} def     

/addtoy {exch dup dup 2 mul 3 add 1 roll -1 1 { 4 1 roll dup 4 1 roll add
	4 -1 roll 2 mul 1 add index 2 mul 2 add 2 roll} for pop} def
/addtoy1 {1 exch addtoy pop} def
/addtoy3 {3 exch addtoy pop} def
/addtoy4 {4 exch addtoy pop} def
/addtox {exch dup dup 2 mul 3 add 1 roll -1 1 { 4 1 roll dup 4 1 roll 3 -1 roll
	add exch 4 -1 roll 2 mul 1 add index 2 mul 2 add 2 roll} for pop} def
/addtox1 {1 exch addtox pop} def
/addtox3 {3 exch addtox pop} def
/addtox4 {4 exch addtox pop} def
/polygon { gsave /num exch def moveto num 1 sub {lineto} repeat setstyles } def
/xcarc   { gsave newpath arc setstyles } def
/elb { matrix currentmatrix 7 -1 roll 7 -1 roll translate 5 1 roll 4 -1 roll
	3 index div 1 scale } def
/ele { 0 4 1 roll 0 4 1 roll } bind def
/ellipse { gsave elb newpath ele arc setmatrix setstyles } def
/pellip  { elb ele arc setmatrix } def
/nellip  { elb ele arcn setmatrix } def
/spline  { gsave moveto curveto setstyles } def
/polyc   { {lineto} repeat } bind def
/beginpath { gsave moveto } bind def
/endpath { setstyles } bind def
/bop	 { 1 setlinecap 0 setlinejoin 6 setmiterlimit 0 0 0 scb cRedef
	/clipped 0 def} def
/psinsertion {/PSobj save def /showpage {} def /setpagedevice {pop} def bop
	rotate translate dup scale} def
/end_insert {PSobj restore} def
/setpagemat {/pagemat matrix currentmatrix def} def
/inchscale  {setpagemat 0.375 mul dup scale} def
/cmscale    {setpagemat 0.35433071 mul dup scale} def

%%EndResource
%%EndProlog

% XCircuit output starts here.

%%BeginSetup


%%EndSetup

%%Page: lcd-con 1
%%PageOrientation: Portrait
/pgsave save def bop
1.0000 inchscale
2.6000 setlinewidth 512 358 translate

{/Helvetica cf} 1 16 0 1.000 -112 -96 label
(16) {/Helvetica cf} 2 16 0 1.000 496 -96 label
0 1.000 496 -48 496 -112 544 -112 544 -48 4 polygon
0 1.000 448 -48 448 -112 496 -112 496 -48 4 polygon
0 1.000 400 -48 400 -112 448 -112 448 -48 4 polygon
0 1.000 352 -48 352 -112 400 -112 400 -48 4 polygon
0 1.000 304 -48 304 -112 352 -112 352 -48 4 polygon
0 1.000 256 -48 256 -112 304 -112 304 -48 4 polygon
0 1.000 208 -48 208 -112 256 -112 256 -48 4 polygon
0 1.000 160 -48 160 -112 208 -112 208 -48 4 polygon
0 1.000 112 -48 112 -112 160 -112 160 -48 4 polygon
0 1.000 64 -48 64 -112 112 -112 112 -48 4 polygon
0 1.000 16 -48 16 -112 64 -112 64 -48 4 polygon
0 1.000 -32 -48 -32 -112 16 -112 16 -48 4 polygon
0 1.000 -80 -48 -80 -112 -32 -112 -32 -48 4 polygon
0 1.000 -128 -48 -128 -112 -80 -112 -80 -48 4 polygon
0 1.000 -176 -48 -176 -112 -128 -112 -128 -48 4 polygon
0 1.000 -224 -48 -224 -112 -176 -112 -176 -48 4 polygon
(15) {/Helvetica cf} 2 16 0 1.000 448 -96 label
(14) {/Helvetica cf} 2 16 0 1.000 400 -96 label
(13) {/Helvetica cf} 2 16 0 1.000 352 -96 label
(12) {/Helvetica cf} 2 16 0 1.000 304 -96 label
(11) {/Helvetica cf} 2 16 0 1.000 256 -96 label
(10) {/Helvetica cf} 2 16 0 1.000 208 -96 label
(9) {/Helvetica cf} 2 16 0 1.000 176 -96 label
(8) {/Helvetica cf} 2 16 0 1.000 128 -96 label
(7) {/Helvetica cf} 2 16 0 1.000 80 -96 label
(6) {/Helvetica cf} 2 16 0 1.000 32 -96 label
(5) {/Helvetica cf} 2 16 0 1.000 -16 -96 label
(1) {/Helvetica cf} 2 16 0 1.000 -208 -96 label
(2) {/Helvetica cf} 2 16 0 1.000 -160 -96 label
(3) {/Helvetica cf} 2 16 0 1.000 -112 -96 label
(4) {/Helvetica cf} 2 16 0 1.000 -64 -96 label
(GND) {/Helvetica cf} 2 16 0 1.000 -320 128 label
(5V) {/Helvetica cf} 2 16 0 1.000 -192 128 label
(PC7) {/Helvetica cf} 2 16 0 1.000 544 128 label
(PC6) {/Helvetica cf} 2 16 0 1.000 448 128 label
0 1.000 -224 160 -224 112 -128 112 -128 160 4 polygon
0 1.000 -128 160 -128 112 -32 112 -32 160 4 polygon
0 1.000 -32 160 -32 112 64 112 64 160 4 polygon
0 1.000 64 160 64 112 160 112 160 160 4 polygon
0 1.000 160 160 160 112 256 112 256 160 4 polygon
0 1.000 256 160 256 112 352 112 352 160 4 polygon
0 1.000 352 160 352 112 448 112 448 160 4 polygon
0 1.000 448 160 448 112 544 112 544 160 4 polygon
0 1.000 544 160 544 112 640 112 640 160 4 polygon
0 1.000 -320 160 -320 112 -224 112 -224 160 4 polygon
(PC5) {/Helvetica cf} 2 16 0 1.000 352 128 label
(PC4) {/Helvetica cf} 2 16 0 1.000 256 128 label
(PC3) {/Helvetica cf} 2 16 0 1.000 160 128 label
(PC2) {/Helvetica cf} 2 16 0 1.000 80 128 label
(PC1) {/Helvetica cf} 2 16 0 1.000 -16 128 label
(PC0) {/Helvetica cf} 2 16 0 1.000 -112 128 label
1 1.000 -176 112 -176 32 -160 32 -160 -48 4 polygon
1 1.000 -272 112 -272 32 -208 32 -208 -48 4 polygon
1 1.000 -192 -112 -192 -144 -96 -144 -96 -112 4 polygon
(PORTC connector of MicroHOPE) {/Helvetica cf} 2 16 0 1.000 -144 192 label
(16 pin connector of LCD display) {/Helvetica cf} 2 16 0 1.000 -64 -160 label
1 1.000 432 -48 432 0 592 0 592 112 4 polygon
1 1.000 368 -48 368 16 368 32 496 32 496 112 5 polygon
1 1.000 320 -48 320 64 400 64 400 112 4 polygon
1 1.000 272 -48 272 112 2 polygon
1 1.000 16 112 16 64 -64 64 -64 -48 -64 -32 5 polygon
1 1.000 -16 -48 -16 16 -16 32 112 32 112 112 5 polygon
1 1.000 48 -48 48 0 192 0 192 112 4 polygon
pgsave restore showpage

%%Trailer
XCIRCsave restore
%%EOF
