%!PS-Adobe-3.0 EPSF-3.0
%%Title: mh-block.eps
%%Creator: XCircuit v3.7 rev26
%%CreationDate: Fri Jan 10 10:19:35 2014
%%Pages: 1
%%BoundingBox: 68 68 664 384
%%DocumentNeededResources: font Helvetica Times-Roman 
%%EndComments
%%BeginProlog
%
%  PostScript prolog for output from xcircuit
%  Version: 3.7
%
%  Electrical circuit (and otherwise general) drawing program
%
%  Written by Tim Edwards 8/5/93--11/1/10  (tim.edwards@multigig.com)
%  The Johns Hopkins University (1993-2004)
%  MultiGiG, Inc. (2004-present)
%
%%BeginResource: procset XCIRCproc 3.7 2
%
% supporting definitions --- these are the primary xcircuit types.

/XCIRCsave save def
/topmat matrix currentmatrix def

/fontslant { /slant exch def [1 0 slant 1 0 0] 
    exch findfont exch makefont dup length dict /ndict exch def
    { 1 index /FID ne { ndict 3 1 roll put } { pop pop } ifelse } forall
    ndict definefont pop} def
/ul { dup type /stringtype eq showflag 1 eq and { gsave 
   currentpoint topmat setmatrix 0 0 moveto 2 index stringwidth pop (_)
   false charpath flattenpath pathbbox grestore exch pop 1 index
   sub setlinewidth exch pop currentpoint 3 -1 roll add moveto 0
   rlineto stroke moveto } if } def
/ol { dup type /stringtype eq showflag 1 eq and { gsave gsave
   currentpoint topmat setmatrix 2 index stringwidth pop 3 index
   true charpath flattenpath pathbbox grestore exch pop
   exch pop topmat setmatrix (_) true charpath pathbbox grestore
   exch pop 1 index sub setlinewidth exch pop currentpoint
   exch 4 1 roll exch sub add moveto pop 0 rlineto stroke
   moveto } if } def
/stW { gsave currentpoint newpath moveto true charpath flattenpath
	pathbbox pop exch pop sub grestore } def
/Ts {mark Tabs aload pop counttomark 1 add array astore /Tabs exch def Tabs
	0 currentpoint pop put} def
/Tbn {mark Tabs aload pop counttomark dup 2 add 1 roll cleartomark 1 sub} def
/Tb { 0 1 Tbn {Tabs exch get dup currentpoint pop lt
	{currentpoint exch pop moveto exit} {pop} ifelse } for } def
/Tf { Tbn -1 0 {Tabs exch get dup currentpoint pop gt
	{currentpoint exch pop moveto exit} {pop} ifelse } for } def
/qS { (aa) stW (a a) stW sub 4 div 0 Kn } def
/hS { qS qS } def
/pspc 0 def
/cf0 { scalefont setfont } bind def
/Kn { dup kY add /kY exch def rmoveto } bind def
/ss { /fscale fscale 0.67 mul def currentfont 0.67 cf0 0 fscale0 fscale mul
	0.33 mul neg Kn} def
/Ss { /fscale fscale 0.67 mul def currentfont 0.67 cf0 0 fscale0 fscale mul
	0.67 mul Kn } def
/ns { 0 kY neg Kn /kY 0 def /fscale 1.0 def xfont0 1.0 cf0 } def
/CR { ns 0 /Bline Bline fscale0 neg add def Bline moveto } def
/cf { dup type /realtype ne {1.0} if exch findfont exch kY 0 eq
	{ 40 mul dup /fscale0 exch def cf0 /xfont0 currentfont def}
	{fscale0 mul fscale mul cf0} ifelse } def
/ctmk { counttomark dup 2 add -1 roll pop } bind def
/label { gsave translate 0 0 moveto dup scale neg /rotval exch def
	/just exch def just 384 and 0 gt {/mshow {pop} def} {/mshow {show}
	def} ifelse just 16 and 0 gt {gsave rotval rotate 0 1 dtransform
	gsave pagemat setmatrix idtransform exch grestore 1 0 dtransform
	gsave pagemat setmatrix idtransform exch grestore dup abs 1e-9 lt
	{pop mul 0 gt} {3 1 roll pop pop 0 lt} ifelse grestore {-1 /rotval
	rotval neg def /just just dup 3 and 1 ne {3 xor} if def} {1} ifelse
	exch -1e-9 lt {-1 /rotval rotval neg def /just just dup 12 and
	4 ne {12 xor} if def} {1} ifelse scale } if /showflag 0 def
	/fspc pspc def /Bline 0 def /Tabs 0 array def /fscale 1.0 def
	/kY 0 def gsave dup 1 add copy 0 exch 1 0 dtransform exch atan rotate
	{exch dup type /stringtype eq {true charpath flattenpath} {dup type
	/arraytype eq {exec} {12 string cvs true charpath flattenpath} ifelse}
	ifelse} repeat pop pathbbox grestore 3 -1 roll pop 3 1 roll just
	1 and 0 gt {just 2 and 0 gt {exch pop neg fspc sub} {exch sub 0.5
	mul neg} ifelse} {pop neg fspc add} ifelse exch Bline exch just 4
	and 0 gt {just 8 and 0 gt {exch pop neg fspc sub} {add 0.5 mul neg}
	ifelse} {pop neg fspc add} ifelse rotval rotate Kn currentpoint
	translate /showflag 1 def /Bline 0 def /Tabs 0 array def /fscale
	1.0 def /kY 0 def {dup type /stringtype eq {mshow} {dup type
	/arraytype eq {exec} {12 string cvs mshow} ifelse} ifelse} repeat
	grestore endclip} def
/pinlabel { 4 index 32 and 0 ne hlevel 0 eq or { /pspc 10 def label
	/pspc 0 def } { pop pop pop pop pop {pop} repeat } ifelse } def
/pinglobal { pinlabel } def
/infolabel { pinlabel } def
/graphic { gsave 4 index cvx exec /DataSource get resetfile translate 0 0
	moveto neg rotate dup scale cvx exec image grestore endclip} def

/scb { setrgbcolor } bind def  /sce { defColor aload pop scb } bind def
/cRedef {/defColor currentcolor 3 array astore def} def
/begingate {dup type /dicttype ne {1 dict} if begin	% default params
	dup type /dicttype ne {1 dict} if begin		% instanced params
	/hlevel hlevel 1 add def /defColor currentcolor sce 3 array astore
	def gsave sce translate 0 0 moveto neg rotate dup type /nametype
	eq not { dup abs currentlinewidth exch div setlinewidth } { pop }
	ifelse dup abs scale clipped 1 and 1 eq {/clipped clipped 1 add def}
	if} bind def
/endgate { /hlevel hlevel 1 sub def grestore defColor aload pop cRedef
	scb end end endclip} bind def

/hlevel 0 def
/endclip {clipped 1 and 1 eq {grestore /clipped clipped 1 sub def} if} def
/tmpa [1 0 0 1 0 0] def
/gar {8 8 true tmpa {<c0 c0 00 00 0c 0c 00 00>} imagemask} bind
{8 8 true tmpa {<30 70 60 02 03 07 06 20>} imagemask} bind
{8 8 true tmpa {<0c 1e 1e 0c c0 e1 e1 c0>} imagemask} bind
{8 8 true tmpa {<0f 0f 0f 0f f0 f0 f0 f0>} imagemask} bind
{8 8 true tmpa {<3f f3 e1 e1 f3 3f 1e 1e>} imagemask} bind
{8 8 true tmpa {<df cf 8f 9f fd fc f8 f9>} imagemask} bind
{8 8 true tmpa {<ff 3f 3f ff ff f3 f3 ff>} imagemask} bind 7 array astore def
/ppaint { gsave clip tmpa dup setmatrix pathbbox neg exch neg 4 2 roll
  neg 4 -1 roll 2 copy gt {exch} if 8 div ceiling 8 mul 4 2 roll neg 2 copy
  gt {exch} if 8 div ceiling 8 mul 3 -1 roll -8 5 -1 roll
  { 3 index exch 5 exch put dup -8 3 index { 3 index
  exch 4 exch put 3 index exec } for } for pop pop pop pop grestore } bind def
/setstyles {
  currentlinewidth mul setlinewidth /style exch def style 2048 and 0 gt
  clipped 1 and 0 eq and {clip newpath /clipped clipped 1 add def} {
  style 1 and 0 gt not {closepath} if
  style 1024 and 0 gt {2 setlinecap} if
  style 2 and 0 gt {currentlinewidth 4 mul dup 2 array astore 0 setdash} if
  style 4 and 0 gt {0.5 currentlinewidth 4 mul 2 array astore 0 setdash} if
  gsave style 16 and 0 gt { style 224 and -5 bitshift style 256 and 0 gt {
  7 exch sub 8 div dup 1 exch sub currentrgbcolor 3 array astore
  {3 copy mul add 4 1 roll pop} forall pop pop setrgbcolor eofill}
  {dup 7 lt {gar exch get ppaint} {pop eofill} ifelse} ifelse}
  {style 256 and 0 gt {1 setgray eofill} if} ifelse grestore style 8 and 0 gt 
  style 512 eq or {newpath} {stroke} ifelse grestore endclip} ifelse} def     

/addtoy {exch dup dup 2 mul 3 add 1 roll -1 1 { 4 1 roll dup 4 1 roll add
	4 -1 roll 2 mul 1 add index 2 mul 2 add 2 roll} for pop} def
/addtoy1 {1 exch addtoy pop} def
/addtoy3 {3 exch addtoy pop} def
/addtoy4 {4 exch addtoy pop} def
/addtox {exch dup dup 2 mul 3 add 1 roll -1 1 { 4 1 roll dup 4 1 roll 3 -1 roll
	add exch 4 -1 roll 2 mul 1 add index 2 mul 2 add 2 roll} for pop} def
/addtox1 {1 exch addtox pop} def
/addtox3 {3 exch addtox pop} def
/addtox4 {4 exch addtox pop} def
/polygon { gsave /num exch def moveto num 1 sub {lineto} repeat setstyles } def
/xcarc   { gsave newpath arc setstyles } def
/elb { matrix currentmatrix 7 -1 roll 7 -1 roll translate 5 1 roll 4 -1 roll
	3 index div 1 scale } def
/ele { 0 4 1 roll 0 4 1 roll } bind def
/ellipse { gsave elb newpath ele arc setmatrix setstyles } def
/pellip  { elb ele arc setmatrix } def
/nellip  { elb ele arcn setmatrix } def
/spline  { gsave moveto curveto setstyles } def
/polyc   { {lineto} repeat } bind def
/beginpath { gsave moveto } bind def
/endpath { setstyles } bind def
/bop	 { 1 setlinecap 0 setlinejoin 6 setmiterlimit 0 0 0 scb cRedef
	/clipped 0 def} def
/psinsertion {/PSobj save def /showpage {} def /setpagedevice {pop} def bop
	rotate translate dup scale} def
/end_insert {PSobj restore} def
/setpagemat {/pagemat matrix currentmatrix def} def
/inchscale  {setpagemat 0.375 mul dup scale} def
/cmscale    {setpagemat 0.35433071 mul dup scale} def

%%EndResource
%%EndProlog

% XCircuit output starts here.

%%BeginSetup

/analog::crystal {
begingate
0 1.000 -24 -12 -24 12 24 12 24 -12 4 polygon
1 1.000 0 48 0 24 2 polygon
1 1.000 0 -48 0 -24 2 polygon
1 1.000 -20 24 20 24 2 polygon
1 1.000 -20 -24 20 -24 2 polygon
1.000 0.000 0.000 scb
(x.1) {/Times-Roman cf} 2 9 0 1.000 0 48 pinlabel
(x.2) {/Times-Roman cf} 2 13 0 1.000 0 -48 pinlabel
endgate
} def

/generic::dot {
% trivial
begingate
248 1.000 0 0 6 0.000 360.000 xcarc
1.000 0.000 0.000 scb
(x) {/Times-Roman cf} 2 29 0 1.000 0 0 pinlabel
endgate
} def

/analog::capacitor {
begingate
1 1.000 0 -64 0 -6 2 polygon
1 1.000 0 64 0 6 2 polygon
1 1.000 -32 6 32 6 2 polygon
1 1.000 -32 -6 32 -6 2 polygon
1.000 0.000 0.000 scb
(c.1) {/Times-Roman cf} 2 9 0 1.000 0 64 pinlabel
(c.2) {/Times-Roman cf} 2 13 0 1.000 0 -64 pinlabel
0.180 0.545 0.341 scb
(spice:C%i %pc.1 %pc.2 1.0P) {/Times-Roman cf} 2 0 0 1.000 -208 -160 infolabel
(sim:c %pc.1 %pc.2) {/Times-Roman cf} 2 0 0 1.000 -208 -208 infolabel
endgate
} def


%%EndSetup

%%Page: mh-block 1
%%PageOrientation: Portrait
/pgsave save def bop
1.0000 inchscale
2.6000 setlinewidth 960 662 translate

(ATMega32) {/Helvetica cf} 2 16 0 1.000 48 80 label
0 1.000 -160 128 -160 -144 544 -144 544 128 4 polygon
0 1.000 -160 352 -160 288 64 288 64 352 4 polygon
0 1.000 256 352 256 288 544 288 544 352 4 polygon
0 1.000 256 -256 256 -320 544 -320 544 -256 4 polygon
0 1.000 -160 -256 -160 -320 128 -320 128 -256 4 polygon
1 1.000 -32 -256 -32 -144 2 polygon
1 1.000 384 -256 384 -144 2 polygon
1 1.000 384 288 384 128 2 polygon
1 1.000 -48 288 -48 128 2 polygon
0 1.000 144 256 144 208 320 208 320 256 4 polygon
(PROG) {/Helvetica cf} 2 16 0 1.000 176 224 label
1 1.000 240 208 240 128 2 polygon
(USB to) {/Helvetica cf} 2 16 0 1.000 -512 48 label
(Serial) {/Helvetica cf} 2 16 0 1.000 -512 -16 label
(Converter) {/Helvetica cf} 2 16 0 1.000 -512 -80 label
0 1.000 -528 128 -528 -144 -320 -144 -320 128 4 polygon
1 1.000 -320 64 -160 64 2 polygon
1 1.000 -320 -64 -160 -64 2 polygon
(PC) {/Helvetica cf} 2 16 0 1.000 -736 32 label
0 1.000 -768 128 -768 -32 -640 -32 -640 128 4 polygon
1 1.000 -640 32 -528 32 2 polygon
(USB) {/Helvetica cf} 2 16 0 1.000 -624 48 label
(PORTC) {/Helvetica cf} 2 16 0 1.000 -96 -304 label
(PORTA) {/Helvetica cf} 2 16 0 1.000 336 -304 label
(PORTB) {/Helvetica cf} 2 16 0 1.000 336 304 label
(PORTD) {/Helvetica cf} 2 16 0 1.000 -112 304 label
(RST) {/Helvetica cf} 2 16 0 1.000 176 -192 label
(RTS) {/Helvetica cf} 2 16 0 1.000 -624 -80 label
1 1.000 512 352 512 288 2 polygon
(LED) {/Helvetica cf} 2 16 0 1.000 576 288 label
1 1.000 528 320 592 320 2 polygon
0 1.000 -112 48 -112 -112 48 -112 48 48 4 polygon
{/Helvetica cf} 1 16 0 1.000 -80 -16 label
(Memory) {/Helvetica cf} 2 16 0 1.000 -112 -32 label
1.000 0 624 -16 analog::crystal
1 1.000 544 48 624 48 624 16 3 polygon
1 1.000 624 -64 624 -96 544 -96 3 polygon
(8 MHz) {/Helvetica cf} 2 16 0 1.000 672 0 label
(Crystal) {/Helvetica cf} 2 16 0 1.000 672 -48 label
(AVR) {/Helvetica cf} 2 16 0 1.000 112 -16 label
(CPU) {/Helvetica cf} 2 16 0 1.000 112 -64 label
0 1.000 80 32 80 -80 224 -80 224 32 4 polygon
{/Helvetica cf} 1 16 0 1.000 256 -48 label
{/Helvetica cf} 1 16 0 1.000 304 16 label
(Peripherals) {/Helvetica cf} 2 16 0 1.000 272 -32 label
0 1.000 256 32 256 -80 496 -80 496 32 4 polygon
1 1.000 -112 -80 48 -80 2 polygon
1 1.000 -112 -112 -80 -80 2 polygon
1 1.000 -80 -112 -48 -80 2 polygon
1 1.000 -48 -112 -16 -80 2 polygon
1 1.000 -16 -112 16 -80 2 polygon
1 1.000 16 -112 48 -80 2 polygon
(A portion of the Flash memory is occupied by the Boot Loader Code) 
{/Helvetica cf} 2 16 0 1.000 -624 -464 label
1 1.000 -528 -96 -624 -96 -624 -208 3 polygon
1.000 0 -624 -208 generic::dot
1.000 0 -624 -240 generic::dot
(Reset) {/Helvetica cf} 2 16 0 1.000 -416 -240 label
(Button) {/Helvetica cf} 2 16 0 1.000 -416 -288 label
0 1.000 -432 -208 -432 -304 -288 -304 -288 -208 4 polygon
1 1.000 -368 -304 -368 -368 2 polygon
(Jumper) {/Helvetica cf} 2 16 0 1.000 -608 -224 label
1.000 90 -528 -368 analog::capacitor
1 1.000 -624 -240 -624 -368 -592 -368 3 polygon
1 1.000 -464 -368 176 -368 176 -144 3 polygon
(C) {/Helvetica cf} 2 16 0 1.000 -544 -320 label
pgsave restore showpage

%%Trailer
XCIRCsave restore
%%EOF
